[gd_scene load_steps=4 format=2]

[ext_resource path="res://assets/simple_fpsplayer/Player.gd" type="Script" id=1]

[sub_resource type="CapsuleShape" id=1]
radius = 0.2
height = 0.5

[sub_resource type="CapsuleMesh" id=2]
radius = 0.2
mid_height = 0.5

[node name="Player" type="KinematicBody"]
input_ray_pickable = false
script = ExtResource( 1 )

[node name="collision_body" type="CollisionShape" parent="."]
transform = Transform( 1, 0, 0, 0, -1.62921e-07, 1, 0, -1, -1.62921e-07, 0, 0, 0 )
shape = SubResource( 1 )

[node name="rotation_helper" type="Spatial" parent="."]
transform = Transform( 1, 0, 0, 0, 1, 0, 0, 0, 1, 0, 0.261115, 0 )

[node name="Camera" type="Camera" parent="rotation_helper"]
transform = Transform( -1, 0, -3.25841e-07, 0, 1, 0, 3.25841e-07, 0, -1, 0, 0, 0 )
keep_aspect = 0
doppler_tracking = 2
fov = 90.0

[node name="playerfeet" type="RayCast" parent="."]
enabled = true
cast_to = Vector3( 0, -2.2, 0 )

[node name="MeshInstance" type="MeshInstance" parent="."]
transform = Transform( 1, 0, 0, 0, -4.37114e-08, -1, 0, 1, -4.37114e-08, 0, 0, 0 )
mesh = SubResource( 2 )
material/0 = null
